{
  "$schema": "../../../node_modules/ng-packagr/ng-package.schema.json",
  "dest": "../../../dist/@benningfield-group/bgi2",
  "lib": {
    "entryFile": "src/public_api.ts",
    "umdModuleIds": {
      "formn-condition-builder": "formnConditionBuilder"
    }
  }
}
